C:\Users\Lenovo\eclipse-workspace\com.dapenbi-itmanager\src\main\java\com\dapenbi\itmanager\techtest\controllers\ManagerController.java
C:\Users\Lenovo\eclipse-workspace\com.dapenbi-itmanager\src\main\java\com\dapenbi\itmanager\techtest\services\RegistrationService.java
C:\Users\Lenovo\eclipse-workspace\com.dapenbi-itmanager\src\main\java\com\dapenbi\itmanager\techtest\models\SmsResponse.java
C:\Users\Lenovo\eclipse-workspace\com.dapenbi-itmanager\src\main\java\com\dapenbi\itmanager\techtest\models\RegistrationResponse.java
C:\Users\Lenovo\eclipse-workspace\com.dapenbi-itmanager\src\main\java\com\dapenbi\itmanager\techtest\Application.java
